…
meta <- sample_data(ps_sub) %>% data.frame() 

write.table(meta, "./meta.tsv", sep = '\t', row.names = T, append = F, col.name = NA)

metadata <-
  read_delim(
    "./meta.tsv",
    delim = "\t",
    escape_double = FALSE,
    trim_ws = TRUE
  )
metadata

# # A tibble: 34 × 9
#    ...1   barcode.sequence body.site  year month   day subject   reported.antibiotic.usage days.since.experiment…¹
#    <chr>  <chr>            <chr>     <dbl> <dbl> <dbl> <chr>     <chr>                                       <dbl>
#  1 L1S105 AGTGCGATGCGT     gut        2009     3    17 subject-1 No                                            140
#  2 L1S140 ATGGCAGCTCTA     gut        2008    10    28 subject-2 Yes                                             0
#  3 L1S208 CTGAGATACGCG     gut        2009     1    20 subject-2 No                                             84
#  4 L1S257 CCGACTGAGATG     gut        2009     3    17 subject-2 No                                            140
#  5 L1S281 CCTCTCGTGATC     gut        2009     4    14 subject-2 No                                            168
#  6 L1S57  ACACACTATGGC     gut        2009     1    20 subject-1 No                                             84
#  7 L1S76  ACTACGTGTGGT     gut        2009     2    17 subject-1 No                                            112
#  8 L1S8   AGCTGACTAGTC     gut        2008    10    28 subject-1 Yes                                             0
#  9 L2S155 ACGATGCGACCA     left palm  2009     1    20 subject-1 No                                             84
# 10 L2S175 AGCTATCCACGA     left palm  2009     2    17 subject-1 No                                            112
# # ℹ 24 more rows
# # ℹ abbreviated name: ¹​days.since.experiment.start
# # ℹ Use `print(n = ...)` to see more rows
…
