…
```


```{r}

ps %>% 
  psmelt %>%
  group_by(Phylum) %>% 
  summarize(OTUn = (unique(OTU) %>% length)) %>% 
  arrange(desc(OTUn))


# # A tibble: 21 × 2
#    Phylum                 OTUn
#    <chr>                 <int>
#  1 Firmicutes              303
#  2 Proteobacteria          169
#  3 Bacteroidetes           140
#  4 Actinobacteria           68
#  5 Fusobacteria             23
#  6 Unclassified Bacteria    19
#  7 Cyanobacteria            12
#  8 Spirochaetes              6
#  9 Verrucomicrobia           6
# 10 Chloroflexi               3
# # ℹ 11 more rows
# # ℹ Use `print(n = ...)` to see more rows
…
